{
    "EFmuonLRT":{
	"chains" : "HLT_mu6_LRT_idperf_L1MU5VF:HLT_IDTrack_MuonLRT_IDTrig:HLT_Roi_L2SAMuon_LRT HLT_mu6_LRT_idperf_L1MU5VF:HLT_IDTrack_MuonLRT_FTF:HLT_Roi_L2SAMuon_LRT HLT_mu6_idperf_L1MU5VF:HLT_IDTrack_IDTrack_Muon_IDTrig:HLT_Roi_L2SAMuon"
    },
    "L2muonLRT":{
	"chains" : "HLT_mu24_LRT_idperf_L1MU14FCH:HLT_IDTrack_MuonLRT_FTF:HLT_Roi_L2SAMuon_LRT HLT_mu6_idperf_L1MU5VF:HLT_IDTrack_Muon_FTF:HLT_Roi_L2SAMuon"
    },
    "L2muon":{
        "chains" : "HLT_mu24_idperf_L1MU14FCH:HLT_IDTrack_Muon_FTF:HLT_Roi_L2SAMuon HLT_mu26_ivarperf_L1MU14FCH:HLT_IDTrack_MuonIso_FTF:HLT_Roi_MuonIso"
    },
    "EFmuon":{
        "chains" : "HLT_mu24_idperf_L1MU14FCH:HLT_IDTrack_Muon_FTF:HLT_Roi_L2SAMuon  HLT_mu24_idperf_L1MU14FCH:HLT_IDTrack_Muon_IDTrig:HLT_Roi_L2SAMuon   HLT_mu26_ivarperf_L1MU14FCH:HLT_IDTrack_MuonIso_IDTrig:HLT_Roi_MuonIso"
    },
    "L2muonLowpt":{
        "chains" : "HLT_mu6_idperf_L1MU5VF:HLT_IDTrack_Muon_FTF:HLT_Roi_L2SAMuon  HLT_mu6_ivarmedium_L1MU5VF:HLT_IDTrack_MuonIso_FTF:HLT_Roi_MuonIso"
    },
    "EFmuonLowpt":{
        "chains" : "HLT_mu6_idperf_L1MU5VF:HLT_IDTrack_Muon_FTF:HLT_Roi_L2SAMuon  HLT_mu6_idperf_L1MU5VF:HLT_IDTrack_Muon_IDTrig:HLT_Roi_L2SAMuon  HLT_mu6_ivarmedium_L1MU5VF:HLT_IDTrack_MuonIso_FTF:HLT_Roi_MuonIso"
    },
    "L2electronLRT":{
	"chains" : "HLT_e5_idperf_loose_lrtloose_L1EM3:HLT_IDTrack_ElecLRT_FTF:HLT_Roi_FastElectron_LRT HLT_e26_idperf_loose_lrtloose_L1EM22VHI:HLT_IDTrack_ElecLRT_FTF:HLT_Roi_FastElectron_LRT"
    },
    "EFelectronLRT":{
        "chains" : "HLT_e5_idperf_loose_lrtloose_L1EM3:HLT_IDTrack_ElecLRT_IDTrig:HLT_Roi_FastElectron_LRT HLT_e26_idperf_loose_lrtloose_L1EM22VHI:HLT_IDTrack_ElecLRT_IDTrig:HLT_Roi_FastElectron_LRT"
    },
    "L2electron":{
        "chains" : "HLT_e26_idperf_loose_L1EM24VHI:HLT_IDTrack_Electron_FTF:HLT_Roi_FastElectron HLT_e28_idperf_loose_L1EM24VHI_HLT_IDTrack_Electron_FTF_HLT_Roi_FastElectron"
    },
    "EFelectron":{
        "chains" : "HLT_e26_idperf_loose_L1EM24VHI_HLT_IDTrack_Electron_FTF_HLT_Roi_FastElectron HLT_e26_idperf_loose_L1EM24VHI_HLT_IDTrack_Electron_IDTrig HLT_e26_lhtight_gsf_ivarloose_L1EM22VHI_HLT_IDTrack_Electron_GSF HLT_e26_idperf_gsf_tight_L1EM22VHI_HLT_IDTrack_Electron_GSF"
    },

    "L2electronLowpt":{
        "chains" : "HLT_e5_idperf_tight_L1EM3_HLT_IDTrack_Electron_FTF_HLT_Roi_FastElectron HLT_e5_idperf_loose_L1EM3_HLT_IDTrack_Electron_FTF_HLT_Roi_FastElectron"
    },
    "EFelectronLowpt":{
        "chains" : "HLT_e5_idperf_tight_L1EM3_HLT_IDTrack_Electron_FTF_HLT_Roi_FastElectron HLT_e5_idperf_tight_L1EM3_HLT_IDTrack_Electron_IDTrig HLT_e5_idperf_loose_L1EM3_HLT_IDTrack_Electron_IDTrig" 
    },
    "L2tau":{
        "chains" : "HLT_tau25_idperf_tracktwoMVA_L1TAU12IM:HLT_IDTrack_TauCore_FTF:HLT_Roi_TauCore HLT_tau25_idperf_tracktwoMVA_L1TAU12IM:HLT_IDTrack_TauIso_FTF:HLT_Roi_TauIso"
    },
    "EFtau":{
        "chains" : "HLT_tau25_idperf_tracktwoMVA_L1TAU12IM:HLT_IDTrack_TauIso_FTF:HLT_Roi_TauIso HLT_tau25_idperf_tracktwoMVA_L1TAU12IM:HLT_IDTrack_Tau_IDTrig:HLT_Roi_TauIso"
    },
    "EFtauvtx":{
        "chains" : "HLT_tau25_idperf_tracktwoMVA_L1TAU12IM:HLT_IDTrack_Tau_IDTrig:HLT_Roi_TauIso:HLT_IDVertex_Tau/HLT_IDVertex_Tau"
    },
    "L2bjet":{
        "chains" : "HLT_j45_0eta290_020jvt_pf_ftf_boffperf_L1J20:HLT_IDTrack_Bjet_FTF"
    },
    "EFbjet":{
        "chains" : "HLT_j45_0eta290_020jvt_pf_ftf_boffperf_L1J20:HLT_IDTrack_Bjet_FTF HLT_j45_0eta290_020jvt_pf_ftf_boffperf_L1J20:HLT_IDTrack_Bjet_IDTrig"
    },
    "L2FS":{
        "chains" : "HLT_j45_ftf_subjesgscIS_boffperf_split_L1J20:HLT_IDTrack_FS_FTF:HLT_FSRoI:HLT_IDVertex_FS HLT_j45_ftf_subjesgscIS_boffperf_split_L1J20:HLT_IDTrack_FS_FTF:HLT_FSRoI:HLT_IDVertex_FSJet"
    },
    "L2fsjet":{
        "chains" : "HLT_j45_ftf_L1J15:HLT_IDTrack_FS_FTF:HLT_FSRoI:HLT_IDVertex_FS HLT_j45_ftf_L1J15:HLT_IDTrack_FS_FTF:HLT_FSRoI:HLT_IDVertex_FSJet"
    },
    "L2fsjetvtx":{
        "chains" : "HLT_j45_ftf_L1J15:HLT_IDTrack_FS_FTF:HLT_FSRoI:HLT_IDVertex_FS/HLT_IDVertex_FS HLT_j45_ftf_L1J15:HLT_IDTrack_FS_FTF:HLT_FSRoI:HLT_IDVertex_FSJet/HLT_IDVertex_FSJet"
    },
    "L2minbias":{
        "chains" : "HLT_mb_sptrk_L1RD0_FILLED:HLT_IDTrack_MinBias_IDTrig"
    },
    "EFminbias":{
        "chains" : "HLT_mb_sptrk_L1RD0_FILLED:HLT_IDTrack_MinBias_IDTrig"
    },
    "L2FSLRT":{
        "chains" : "HLT_unconvtrk0_fslrt_L1J100:HLT_IDTrack_FSLRT_FTF_DTE  HLT_unconvtrk0_fslrt_L1J100:HLT_IDTrack_FS_FTF_DTE"
    },
    "EFFSLRT":{
        "chains" : "HLT_unconvtrk0_fslrt_L1J100:HLT_IDTrack_FSLRT_FTF_DTE  HLT_unconvtrk0_fslrt_L1J100:HLT_IDTrack_FSLRT_IDTrig_DTE"
    },
    "L2bphys":{ 
	"chains" : "HLT_2mu4_bBmumux_BsmumuPhi_L12MU3V:HLT_IDTrack_Bmumux_FTF"
    },
    "EFbphys":{ 
	"chains" : "HLT_2mu4_bBmumux_BsmumuPhi_L12MU3V:HLT_IDTrack_Bmumux_FTF  HLT_2mu4_bBmumux_BsmumuPhi_L12MU3V:HLT_IDTrack_Bmumux_IDTrig"
    },
    "L2electronTnP":{
	"chains" : "HLT_e26_lhtight_ivarloose_e5_lhvloose_idperf_probe_L1EM22VHI:HLT_IDTrack_Electron_FTF:HLT_Roi_FastElectron:1"
    },
    "EFelectronTnP":{
	"chains" : "HLT_e26_lhtight_ivarloose_e5_lhvloose_idperf_probe_L1EM22VHI:HLT_IDTrack_Electron_FTF:HLT_Roi_FastElectron:1 HLT_e26_lhtight_ivarloose_e5_lhvloose_idperf_probe_L1EM22VHI:HLT_IDTrack_Electron_IDTrig:HLT_Roi_FastElectron:1"
    },
    "L2cosmic":{
    "chains" : "HLT_mu4_cosmic_L1MU3V:HLT_IDTrack_Cosmic_IDTrig HLT_mu4_cosmic_L1MU3V:HLT_IDTrack_Cosmic_FTF HLT_mu4_cosmic_L1MU3V:HLT_IDTrack_Cosmic_EFID"
    },
    "EFcosmic":{
    "chains" : "HLT_mu4_cosmic_L1MU3V:HLT_IDTrack_Cosmic_IDTrig HLT_mu4_cosmic_L1MU3V:HLT_IDTrack_Cosmic_FTF HLT_mu4_cosmic_L1MU3V:HLT_IDTrack_Cosmic_EFID"
    }
}






